┌─────────────────────────┬───┬───┬───┐
│                         │ a │ b │ c │
├─────────────────────────┼───┼───┼───┤
│                       x │ 1 │ 2 │ 3 │
├─────────────────────────┼───┼───┼───┤
│ 2009-02-13 23:31:30 UTC │ 4 │ 5 │ 6 │
└─────────────────────────┴───┴───┴───┘
